%YAML 1.1
%TAG !u! tag:unity3d.com,2011:
--- !u!1045 &1
EditorBuildSettings:
  m_ObjectHideFlags: 0
  serializedVersion: 2
  m_Scenes: []
  m_configObjects:
    UnityEditor.XR.ARCore.ARCoreSettings: {fileID: 11400000, guid: b9639f800bdaf124bb101605470c82b3, type: 2}
    com.unity.xr.management.loader_settings: {fileID: 11400000, guid: 3c90adfcbd0067c48b22df3d872bc4e4, type: 2}
